{
	"agcgw_all":{
		"CN":"connect-drcn.hispace.hicloud.com",
		"CN_back":"connect-drcn.dbankcloud.cn",
		"DE":"connect-dre.hispace.hicloud.com",
		"DE_back":"connect-dre.dbankcloud.cn",
		"RU":"connect-drru.hispace.hicloud.com",
		"RU_back":"connect-drru.dbankcloud.cn",
		"SG":"connect-dra.hispace.hicloud.com",
		"SG_back":"connect-dra.dbankcloud.cn"
	},
	"client":{
		"cp_id":"890027000000000756",
		"product_id":"736430079244834360",
		"client_id":"574687463998489664",
		"client_secret":"49A1B38C97985B63FE457712FEA8C4C799A067F9728E4BC1EA5885DB256F91D4",
		"project_id":"736430079244834360",
		"app_id":"103932621",
		"api_key":"CgB6e3x9YXhuuq4ZxI9uKDVwxxNhkNuqcQi9GQ/+cyvTbwTRzV+2D+CjUTD8iOlxgHl1yoHBxZXHraLeMqxHSm73",
		"package_name":"za.sargamatha.iol"
	},
	"configuration_version":"2.0",
	"appInfos":[
		{
			"package_name":"za.sargamatha.iol",
			"app_id":"103932621"
		}
	]
}